// Jest Snapshot v1, https://goo.gl/fbAQLP

exports[`Login Page should render Home Screen module correctly 1`] = `ShallowWrapper {}`;

exports[`Register Page should render properly 1`] = `
<View
  style={
    Object {
      "backgroundColor": "#1d202b",
      "flex": 1,
    }
  }
>
  <Image
    source={
      Object {
        "testUri": "../../../src/Assets/Images/1722.jpg",
      }
    }
    style={
      Object {
        "height": "45%",
        "opacity": 0.5,
        "width": "100%",
      }
    }
  />
  <View
    style={
      Object {
        "backgroundColor": "#1d202b",
        "borderTopLeftRadius": 35,
        "borderTopRightRadius": 35,
        "marginTop": -70,
        "padding": 12,
      }
    }
  >
    <Text
      style={
        Object {
          "color": "#ffffff",
          "fontSize": 20,
          "marginVertical": 25,
          "textAlign": "center",
        }
      }
    >
      Create your account
    </Text>
    <TextInput
      color="#fff"
      onChangeText={[Function]}
      placeholder="Full Name"
      placeholderTextColor="#ffffff"
      style={
        Object {
          "borderColor": "#2a2d37",
          "borderRadius": 15,
          "borderWidth": 1,
          "fontSize": 14,
          "marginBottom": 15,
          "paddingHorizontal": 18,
          "paddingVertical": 12,
        }
      }
      testID="setName"
      value=""
    />
    <TextInput
      color="#fff"
      onChangeText={[Function]}
      placeholder="Email"
      placeholderTextColor="#ffffff"
      style={
        Object {
          "borderColor": "#2a2d37",
          "borderRadius": 15,
          "borderWidth": 1,
          "fontSize": 14,
          "marginBottom": 15,
          "paddingHorizontal": 18,
          "paddingVertical": 12,
        }
      }
      testID="setEmail"
      value=""
    />
    <TextInput
      color="#fff"
      onChangeText={[Function]}
      placeholder="Password"
      placeholderTextColor="#ffffff"
      secureTextEntry={true}
      style={
        Object {
          "borderColor": "#2a2d37",
          "borderRadius": 15,
          "borderWidth": 1,
          "fontSize": 14,
          "marginBottom": 15,
          "paddingHorizontal": 18,
          "paddingVertical": 12,
        }
      }
      testID="setPassword"
      value=""
    />
  </View>
  <View
    style={
      Object {
        "marginTop": -30,
        "padding": 22,
      }
    }
  >
    <View
      accessibilityRole="button"
      accessible={true}
      collapsable={false}
      focusable={true}
      onClick={[Function]}
      onResponderGrant={[Function]}
      onResponderMove={[Function]}
      onResponderRelease={[Function]}
      onResponderTerminate={[Function]}
      onResponderTerminationRequest={[Function]}
      onStartShouldSetResponder={[Function]}
      style={
        Object {
          "opacity": 1,
        }
      }
      testID="register"
    >
      <View
        style={
          Array [
            Object {},
          ]
        }
      >
        <Text
          style={
            Array [
              Object {
                "color": "#007AFF",
                "fontSize": 18,
                "margin": 8,
                "textAlign": "center",
              },
              Object {
                "color": "#fd9210",
              },
            ]
          }
        >
          Register
        </Text>
      </View>
    </View>
    <Text
      style={
        Object {
          "color": "#ffffff",
          "marginVertical": 17,
          "textAlign": "center",
        }
      }
    >
      have an account ?
    </Text>
    <View
      accessible={true}
      collapsable={false}
      focusable={true}
      onClick={[Function]}
      onResponderGrant={[Function]}
      onResponderMove={[Function]}
      onResponderRelease={[Function]}
      onResponderTerminate={[Function]}
      onResponderTerminationRequest={[Function]}
      onStartShouldSetResponder={[Function]}
      style={
        Object {
          "alignItems": "center",
          "justifyContent": "center",
          "opacity": 1,
        }
      }
    >
      <Text
        style={
          Object {
            "color": "#fff",
            "fontSize": 15,
            "fontWeight": "bold",
          }
        }
      >
        Login
      </Text>
    </View>
  </View>
</View>
`;
